<?xml version="1.0" encoding="UTF-8" standalone="no"?>
<!-- Created with Inkscape (http://www.inkscape.org/) -->

<svg
   width="512"
   height="256"
   viewBox="0 0 135.46667 67.733334"
   version="1.1"
   id="svg5"
   sodipodi:docname="fwlnx.svg"
   inkscape:version="1.2.1 (9c6d41e410, 2022-07-14, custom)"
   xmlns:inkscape="http://www.inkscape.org/namespaces/inkscape"
   xmlns:sodipodi="http://sodipodi.sourceforge.net/DTD/sodipodi-0.dtd"
   xmlns="http://www.w3.org/2000/svg"
   xmlns:svg="http://www.w3.org/2000/svg">
  <sodipodi:namedview
     id="namedview319"
     pagecolor="#505050"
     bordercolor="#eeeeee"
     borderopacity="1"
     inkscape:showpageshadow="0"
     inkscape:pageopacity="0"
     inkscape:pagecheckerboard="0"
     inkscape:deskcolor="#505050"
     showgrid="false"
     inkscape:zoom="3.0970754"
     inkscape:cx="255.07935"
     inkscape:cy="140.45509"
     inkscape:window-width="2560"
     inkscape:window-height="1403"
     inkscape:window-x="2560"
     inkscape:window-y="18"
     inkscape:window-maximized="1"
     inkscape:current-layer="layer1" />
  <defs
     id="defs2" />
  <g
     id="layer1">
    <rect
       style="fill:#333333;stroke-width:0.00680711"
       id="rect344-2"
       width="58.737499"
       height="58.737499"
       x="4.4979177"
       y="4.4979177"
       ry="7.3421874" />
    <path
       id="rect344-2-3"
       style="fill:#ff0000;stroke-width:0.00680711"
       d="m 4.4979167,55.434322 v 0.458857 c 0,4.06757 3.274646,7.342216 7.3422143,7.342216 h 7.342215 v -5.070568 c 0,-1.512653 -1.217853,-2.730505 -2.730507,-2.730505 z" />
    <path
       id="rect344-2-0"
       style="fill:#ff0000;stroke-width:0.00680711"
       d="M 4.4979167,21.476758 V 36.161069 H 16.451839 c 1.512654,0 2.730507,-1.217733 2.730507,-2.730388 v -9.223535 c 0,-1.512653 -1.217853,-2.730388 -2.730507,-2.730388 z" />
    <path
       id="rect344-2-7"
       style="fill:#ff0000;stroke-width:0.00680711"
       d="m 38.891573,4.4979176 c -1.512654,0 -2.730505,1.2177337 -2.730505,2.7303874 v 9.223535 c 0,1.512654 1.217851,2.730507 2.730505,2.730507 h 23.907846 c 0.148512,0 0.294021,-0.01225 0.435975,-0.03486 v -7.307355 c 0,-4.0675682 -3.274646,-7.3422144 -7.342216,-7.3422144 z" />
    <path
       id="rect344"
       style="fill:#ff0000;stroke-width:0.00680711"
       d="m 11.840131,4.4979176 c -4.0675683,0 -7.3422143,3.2746462 -7.3422143,7.3422144 v 4.611708 c 0,1.512654 1.217734,2.730507 2.730387,2.730507 H 31.136268 c 1.512653,0 2.730387,-1.217853 2.730387,-2.730507 V 7.228305 c 0,-1.5126537 -1.217734,-2.7303874 -2.730387,-2.7303874 z" />
    <path
       id="rect344-2-2"
       style="fill:#ff0000;stroke-width:0.00680711"
       d="m 38.891573,38.45548 c -1.512654,0 -2.730505,1.217853 -2.730505,2.730507 v 9.223534 c 0,1.512654 1.217851,2.730388 2.730505,2.730388 h 23.907846 c 0.148512,0 0.294021,-0.01214 0.435975,-0.03474 v -14.61483 c -0.141954,-0.0226 -0.287463,-0.03486 -0.435975,-0.03486 z" />
    <path
       id="rect344-2-06"
       style="fill:#ff0000;stroke-width:0.00680711"
       d="m 55.870295,55.434322 c -1.512653,0 -2.730387,1.217852 -2.730387,2.730505 v 5.070568 h 2.75327 c 4.06757,0 7.342216,-3.274646 7.342216,-7.342216 v -0.458857 z" />
    <path
       id="rect344-2-6"
       style="fill:#ff0000;stroke-width:0.00680711"
       d="m 24.207145,55.434322 c -1.512653,0 -2.730388,1.217852 -2.730388,2.730505 v 5.070568 h 29.368738 v -5.070568 c 0,-1.512653 -1.217734,-2.730505 -2.730388,-2.730505 z" />
    <path
       id="rect344-2-9"
       style="fill:#ff0000;stroke-width:0.00680711"
       d="m 55.870295,21.476758 c -1.512653,0 -2.730387,1.217735 -2.730387,2.730388 v 9.223535 c 0,1.512655 1.217734,2.730388 2.730387,2.730388 h 7.365099 V 21.476758 Z" />
    <rect
       style="fill:#ff0000;stroke-width:0.00531464"
       id="rect450-5"
       width="29.36875"
       height="14.684375"
       x="4.4979177"
       y="38.455536"
       ry="2.7304244" />
    <rect
       style="fill:#ff0000;stroke-width:0.00531464"
       id="rect450-6-7-5"
       width="29.36875"
       height="14.684375"
       x="21.476727"
       y="21.476727"
       ry="2.7304244" />
    <g
       id="penguin"
       transform="matrix(0.73409547,0,0,0.73409547,68.578461,0.83715897)">
      <path
         class="cls-1"
         d="m 51.86,28.64 a 7.39,7.39 0 0 1 5.32,-8 l 0.6,-0.18 h 1.67 l 13.62,0.68 a 1.67,1.67 0 0 1 1,3 L 61,34.2 a 7.41,7.41 0 0 1 -1.78,0.6 v 0 a 7.22,7.22 0 0 1 -7.36,-6.16 z"
         id="path935"
         style="fill:#ffa400" />
      <path
         class="cls-2"
         d="M 61.25,42.32 61,35.87 v 0 l 0.22,6.46 c 2.54,3 14.58,18.1 14.58,37.6 q 0,1 0,1.94 A 3.33,3.33 0 0 1 72.44,85 H 17.83 c 0,-3.79 23.44,-9.91 23.44,-19.73 0.01,-16.64 13.37,-21.54 19.98,-22.95 z"
         id="path937"
         style="fill:#e6e6e6" />
      <path
         class="cls-3"
         d="m 61,34.2 c -3.85,0.13 -7.43,-0.9 -8,-5.12 a 7.93,7.93 0 0 1 5.73,-8.4 l 0.64,-0.19 A 23.34,23.34 0 0 0 30.92,5.9 23,23 0 0 0 14.25,28.15 v 0.12 c 0,2.11 -0.19,33.58 0,53.46 0,1.82 2,3.26 3.79,3.26 h 3.42 A 19.77,19.77 0 0 0 41.28,65.27 v 0 c 0,-16.65 13.36,-21.54 20,-23 z"
         id="path939"
         style="fill:#404041" />
      <path
         class="cls-4"
         d="m 33.86,24.17 a 6.7,6.7 0 1 0 6.7,-6.67 6.68,6.68 0 0 0 -6.7,6.67 z m 2.91,0 a 3.79,3.79 0 1 1 3.79,3.77 3.78,3.78 0 0 1 -3.79,-3.77 z"
         id="path941"
         style="fill:#ffffff" />
      <ellipse
         class="cls-5"
         cx="40.560001"
         cy="24.17"
         rx="3.79"
         ry="3.77"
         id="ellipse943"
         style="fill:#2b2b2b" />
    </g>
  </g>
</svg>
